TF-IDF:
    Euclidean distance:
         F-Measure:0.018018018018018018         Precision:0.01         Recall:0.09090909090909091
    Cosine similarity:
         fMeasure:0         Precision:0.0         Recall:0.0
BINARY:
    Euclidean distance:
         F-Measure:0.018018018018018018         Precision:0.01         Recall:0.09090909090909091
    Cosine similarity:
         fMeasure:0         Precision:0.0         Recall:0.0
PURE TF:
    Euclidean distance:
         F-Measure:0.018018018018018018         Precision:0.01         Recall:0.09090909090909091
    Cosine similarity:
         fMeasure:0         Precision:0.0         Recall:0.0
