TF-IDF:
    Euclidean distance:
         F-Measure:0.018691588785046728         Precision:0.01         Recall:0.14285714285714285
    Cosine similarity:
         fMeasure:0         Precision:0.0         Recall:0.0
BINARY:
    Euclidean distance:
         F-Measure:0         Precision:0.0         Recall:0.0
    Cosine similarity:
         fMeasure:0         Precision:0.0         Recall:0.0
PURE TF:
    Euclidean distance:
         F-Measure:0         Precision:0.0         Recall:0.0
    Cosine similarity:
         fMeasure:0         Precision:0.0         Recall:0.0
