TF-IDF:
    Euclidean distance:
         F-Measure:0         Precision:0.0         Recall:0.0
    Cosine similarity:
         fMeasure:0         Precision:0.0         Recall:0.0
BINARY:
    Euclidean distance:
         F-Measure:0         Precision:0.0         Recall:0.0
    Cosine similarity:
         fMeasure:0         Precision:0.0         Recall:0.0
PURE TF:
    Euclidean distance:
         F-Measure:0.018518518518518517         Precision:0.01         Recall:0.125
    Cosine similarity:
         fMeasure:0         Precision:0.0         Recall:0.0
