TF-IDF:
    Euclidean distance:
         F-Measure:0         Precision:0.0         Recall:0.0
    Cosine similarity:
         fMeasure:0.03669724770642202         Precision:0.02         Recall:0.2222222222222222
BINARY:
    Euclidean distance:
         F-Measure:0         Precision:0.0         Recall:0.0
    Cosine similarity:
         fMeasure:0.03669724770642202         Precision:0.02         Recall:0.2222222222222222
PURE TF:
    Euclidean distance:
         F-Measure:0         Precision:0.0         Recall:0.0
    Cosine similarity:
         fMeasure:0.03669724770642202         Precision:0.02         Recall:0.2222222222222222
