TF-IDF:
    Euclidean distance:
         F-Measure:0         Precision:0.0         Recall:0.0
    Cosine similarity:
         fMeasure:0.019047619047619046         Precision:0.01         Recall:0.2
BINARY:
    Euclidean distance:
         F-Measure:0         Precision:0.0         Recall:0.0
    Cosine similarity:
         fMeasure:0.019047619047619046         Precision:0.01         Recall:0.2
PURE TF:
    Euclidean distance:
         F-Measure:0         Precision:0.0         Recall:0.0
    Cosine similarity:
         fMeasure:0.019047619047619046         Precision:0.01         Recall:0.2
